{
  "type": "service_account",
  "project_id": "borya-24cb3",
  "private_key_id": "c1c6e6be730d38966af349a55b5b7beca00d10a6",
  "private_key": "-----BEGIN PRIVATE KEY-----\nMIIEvQIBADANBgkqhkiG9w0BAQEFAASCBKcwggSjAgEAAoIBAQCf2UvqiljOQ7/i\noSTCO1HxhjFq34IvR1XWRRmjjcVqRGsYapRiMZsaFRwBvXKhbuzqm9eOGKMEVlEi\n+y+B9m5gY2bBQkc/sZ/fFo3WRscQ7m0PIuCj7ii2VFrs9g+7Fhs93Atm3hpb+ly9\nwUaDyOfDLYDy8hn85sQ9COG8dBMAWPdwyvgmnn0DrVBFH9c9TTwob6Jagd07TtB1\n+8Md1QPqmCE1RSpJmRBBSTEb7iNe1bn4qY5UYRN8R1l8Ri0ZWAiC7czef+gqm1H2\nl5Bam2a4J/IAsKTVyvp/sAoeE8OoCAd1X4PfITH0huei7ptsHvXbsaDeGGnq9i49\nmy0CKYbDAgMBAAECggEABC+BQsaqf9nw2ka2CRWFjw0SUvfqggjAGF3XKzE+bQqk\nXiTNoRW1VEU7kQGnNF23Qr/YsNCpjlF2SzPO6e3+CcnAiIydIDarTCujZ+voMQ6V\nMbM2tPXzqthT1rvQs0znRnwAYfwB2QV9aL3qrtLTosGKcAPjbfvpJTWL8IdiORmQ\nnZhZ1F6XK+Nab5W86U5JSzUlz7yIFysP1oTguNZPtP5rNv3hOzWtXXxAFDk/kxTP\naj2KwrjSDCDEmDxov7g115SXasiA+5DCm095QWz7aFTvDz4yp+pLNiQ0fcShMuz0\nfYYbvk0x4vCdnDtmUNdSVnr4bb4QkeCpKk/PicGF5QKBgQDhxPXVc4hLSHkQtE50\nBQga7RtTyII/pM13jftUwwN81pyv9MPiVDLkcv1+txXEM4CmezXJk/qWIndlBxuf\n8lmnavpQ4Mgi/HlJrWFexMeo0YVF3e0dLUGjwaQTB7LVeXoYqoHSe7AIqozdX0GQ\nQXkPGycSZjTNWYBtmkcu2MPinwKBgQC1QK1VHTke+JRUWA/6JkwvNK7Y/isrKZTl\nq3PRhuVexUvTw94+mt6DtupSqGhigGG5SXpZT7VITwY9Uqnti11Bo8AVikgLhCX3\n3Z/11D+B3hCRRhKVziMdky2tLm2dlWg8cYSI9SyxbZr7A0U7h/SuzEfJmC3bNy4s\nVT6dw+3tXQKBgQDWKPalRtWXzCSDUvZEme1JVXehr0bWRmddLEKn8eEiD5ZMVttl\nm0c3a1jJVbUBC3XS9ndcQtHmjsVBAVAUFlkzNYhDJibTATmwSRZfRjy7CBzq3Iyr\nK53jT7FrF9dtJrFKKpvBZPDkF5xN9akExQan7LLQgkE+NdNcpIc3igmuswKBgCjT\nmrdzT6yEPZUKCP9FpR909HV4Ou0L/rgE+J+XjQ7dzgizM9pSNBDjIMDhojGdzWVZ\nAbAgXisdccBaYGBbZfQlGF1BupytdYfxadiLqIpuJLk0WXdY6Vv+DOnXbWVzg/kp\ncLsQzrJgh+pGgE+6fgjphroIBzw7n7DouqP6wBsZAoGAGr6Y/S7uTSPNUkYPna7u\nQ9+vP3eNfQrDpii/g1XROCFK4Xdgd8S3CAx678YgFtLYNy8y5Wis3Xpyb2aRWrhC\nPbzkAM7ilEyIiTxud3aw9f5JzZgwHyF5BGXJO0MFePSKt4f1yUdzQoeZ/yLjnehY\n8/wpbhQPCa3XamIveF068Yk=\n-----END PRIVATE KEY-----\n",
  "client_email": "firebase-adminsdk-ayqe4@borya-24cb3.iam.gserviceaccount.com",
  "client_id": "117715401348130412859",
  "auth_uri": "https://accounts.google.com/o/oauth2/auth",
  "token_uri": "https://oauth2.googleapis.com/token",
  "auth_provider_x509_cert_url": "https://www.googleapis.com/oauth2/v1/certs",
  "client_x509_cert_url": "https://www.googleapis.com/robot/v1/metadata/x509/firebase-adminsdk-ayqe4%40borya-24cb3.iam.gserviceaccount.com"
}
